+-----------+-----------------------------------------------+------------------------------------------------------------------------+
|[32m Method    [39m|[32m URI                                           [39m|[32m Action                                                                 [39m|
+-----------+-----------------------------------------------+------------------------------------------------------------------------+
| GET|HEAD  | admin                                         | Modules\Admin\Http\Controllers\AdminController@index                   |
| POST      | admin/ajax-media                              | Modules\Admin\Http\Controllers\MediaController@ajaxLoad                |

| POST      | admin/checkout/souvenirs                      | Modules\Admin\Http\Controllers\Checkout\SouvenirController@store       |
| GET|HEAD  | admin/checkout/souvenirs                      | Modules\Admin\Http\Controllers\Checkout\SouvenirController@index       |
| GET|HEAD  | admin/checkout/souvenirs/create               | Modules\Admin\Http\Controllers\Checkout\SouvenirController@create      |
| DELETE    | admin/checkout/souvenirs/{souvenir}           | Modules\Admin\Http\Controllers\Checkout\SouvenirController@destroy     |
| PUT|PATCH | admin/checkout/souvenirs/{souvenir}           | Modules\Admin\Http\Controllers\Checkout\SouvenirController@update      |
| GET|HEAD  | admin/checkout/souvenirs/{souvenir}/edit      | Modules\Admin\Http\Controllers\Checkout\SouvenirController@edit        |

| POST      | admin/checkout/tours                          | Modules\Admin\Http\Controllers\Checkout\TourController@store           |
| GET|HEAD  | admin/checkout/tours                          | Modules\Admin\Http\Controllers\Checkout\TourController@index           |
| GET|HEAD  | admin/checkout/tours/create                   | Modules\Admin\Http\Controllers\Checkout\TourController@create          |
| DELETE    | admin/checkout/tours/{tour}                   | Modules\Admin\Http\Controllers\Checkout\TourController@destroy         |
| GET|HEAD  | admin/checkout/tours/{tour}                   | Modules\Admin\Http\Controllers\Checkout\TourController@show            |
| PUT|PATCH | admin/checkout/tours/{tour}                   | Modules\Admin\Http\Controllers\Checkout\TourController@update          |
| GET|HEAD  | admin/checkout/tours/{tour}/edit              | Modules\Admin\Http\Controllers\Checkout\TourController@edit            |

| GET|HEAD  | admin/checkout/tours/{tour}/forms             | Modules\Admin\Http\Controllers\Checkout\TourFormController@index       |
| PUT|PATCH | admin/checkout/tours/{tour}/forms/{form}      | Modules\Admin\Http\Controllers\Checkout\TourFormController@update      |
| DELETE    | admin/checkout/tours/{tour}/forms/{form}      | Modules\Admin\Http\Controllers\Checkout\TourFormController@destroy     |
| GET|HEAD  | admin/checkout/tours/{tour}/forms/{form}/edit | Modules\Admin\Http\Controllers\Checkout\TourFormController@edit        |

| GET|HEAD  | admin/currencies                              | Modules\Admin\Http\Controllers\CurrencyController@index                |
| POST      | admin/currencies                              | Modules\Admin\Http\Controllers\CurrencyController@store                |
| GET|HEAD  | admin/media                                   | Modules\Admin\Http\Controllers\MediaController@index                   |
| POST      | admin/media                                   | Modules\Admin\Http\Controllers\MediaController@store                   |
| DELETE    | admin/media/{medium}                          | Modules\Admin\Http\Controllers\MediaController@destroy                 |
| POST      | admin/module                                  | Modules\Admin\Http\Controllers\ModuleController@store                  |
| GET|HEAD  | admin/module                                  | Modules\Admin\Http\Controllers\ModuleController@index                  |
| GET|HEAD  | admin/options                                 | Modules\Admin\Http\Controllers\OptionController@index                  |
| POST      | admin/options                                 | Modules\Admin\Http\Controllers\OptionController@store                  |
| GET|HEAD  | admin/options/create                          | Modules\Admin\Http\Controllers\OptionController@create                 |
| PUT|PATCH | admin/options/{option}                        | Modules\Admin\Http\Controllers\OptionController@update                 |
| DELETE    | admin/options/{option}                        | Modules\Admin\Http\Controllers\OptionController@destroy                |
| GET|HEAD  | admin/options/{option}/edit                   | Modules\Admin\Http\Controllers\OptionController@edit                   |
| POST      | admin/souvenirs                               | Modules\Admin\Http\Controllers\SouvenirController@store                |
| GET|HEAD  | admin/souvenirs                               | Modules\Admin\Http\Controllers\SouvenirController@index                |
| GET|HEAD  | admin/souvenirs/create                        | Modules\Admin\Http\Controllers\SouvenirController@create               |
| GET|HEAD  | admin/souvenirs/{souvenir}                    | Modules\Admin\Http\Controllers\SouvenirController@show                 |
| DELETE    | admin/souvenirs/{souvenir}                    | Modules\Admin\Http\Controllers\SouvenirController@destroy              |
| PUT|PATCH | admin/souvenirs/{souvenir}                    | Modules\Admin\Http\Controllers\SouvenirController@update               |
| GET|HEAD  | admin/souvenirs/{souvenir}/edit               | Modules\Admin\Http\Controllers\SouvenirController@edit                 |
| POST      | admin/tours                                   | Modules\Admin\Http\Controllers\TourController@store                    |
| GET|HEAD  | admin/tours                                   | Modules\Admin\Http\Controllers\TourController@index                    |
| GET|HEAD  | admin/tours/create                            | Modules\Admin\Http\Controllers\TourController@create                   |
| DELETE    | admin/tours/{tour}                            | Modules\Admin\Http\Controllers\TourController@destroy                  |
| GET|HEAD  | admin/tours/{tour}                            | Modules\Admin\Http\Controllers\TourController@show                     |
| PUT|PATCH | admin/tours/{tour}                            | Modules\Admin\Http\Controllers\TourController@update                   |
| GET|HEAD  | admin/tours/{tour}/edit                       | Modules\Admin\Http\Controllers\TourController@edit                     |
| GET|HEAD  | admin/users                                   | Modules\Admin\Http\Controllers\UserController@index                    |
| POST      | admin/users                                   | Modules\Admin\Http\Controllers\UserController@store                    |
| GET|HEAD  | admin/users/create                            | Modules\Admin\Http\Controllers\UserController@create                   |
| PUT|PATCH | admin/users/{user}                            | Modules\Admin\Http\Controllers\UserController@update                   |
| DELETE    | admin/users/{user}                            | Modules\Admin\Http\Controllers\UserController@destroy                  |
| GET|HEAD  | admin/users/{user}/edit                       | Modules\Admin\Http\Controllers\UserController@edit                     |
| GET|HEAD  | api/admin                                     | Closure                                                                |
| GET|HEAD  | api/currency                                  | Closure                                                                |
| GET|HEAD  | api/media                                     | Closure                                                                |
| GET|HEAD  | api/option                                    | Closure                                                                |
| GET|HEAD  | api/souvenir                                  | Closure                                                                |
| GET|HEAD  | api/tour                                      | Closure                                                                |
| GET|HEAD  | api/user                                      | Closure                                                                |
| GET|HEAD  | currency                                      | Modules\Currency\Http\Controllers\CurrencyController@index             |
| GET|HEAD  | login                                         | App\Http\Controllers\Auth\LoginController@showLoginForm                |
| POST      | login                                         | App\Http\Controllers\Auth\LoginController@login                        |
| POST      | logout                                        | App\Http\Controllers\Auth\LoginController@logout                       |
| GET|HEAD  | me/home                                       | App\Http\Controllers\HomeController@index                              |
| GET|HEAD  | me/shop                                       | App\Http\Controllers\HomeController@shop                               |
| GET|HEAD  | me/tours                                      | App\Http\Controllers\HomeController@tours                              |
| POST      | me/update                                     | App\Http\Controllers\HomeController@update                             |
| GET|HEAD  | media                                         | Modules\Media\Http\Controllers\MediaController@index                   |
| GET|HEAD  | option                                        | Modules\Option\Http\Controllers\OptionController@index                 |
| GET|HEAD  | password/confirm                              | App\Http\Controllers\Auth\ConfirmPasswordController@showConfirmForm    |
| POST      | password/confirm                              | App\Http\Controllers\Auth\ConfirmPasswordController@confirm            |
| POST      | password/email                                | App\Http\Controllers\Auth\ForgotPasswordController@sendResetLinkEmail  |
| GET|HEAD  | password/reset                                | App\Http\Controllers\Auth\ForgotPasswordController@showLinkRequestForm |
| POST      | password/reset                                | App\Http\Controllers\Auth\ResetPasswordController@reset                |
| GET|HEAD  | password/reset/{token}                        | App\Http\Controllers\Auth\ResetPasswordController@showResetForm        |
| POST      | register                                      | App\Http\Controllers\Auth\RegisterController@register                  |
| GET|HEAD  | register                                      | App\Http\Controllers\Auth\RegisterController@showRegistrationForm      |
| GET|HEAD  | share/{slug}/link                             | App\Http\Controllers\HomeController@user_form                          |
| GET|HEAD  | souvenir                                      | Modules\Souvenir\Http\Controllers\SouvenirController@index             |
| GET|HEAD  | tour                                          | Modules\Tour\Http\Controllers\TourController@index                     |
| GET|HEAD  | user                                          | Modules\User\Http\Controllers\UserController@index                     |
+-----------+-----------------------------------------------+------------------------------------------------------------------------+
