{
    "name": "Option",
    "alias": "option",
    "description": "",
    "keywords": [],
    "order": 0,
    "providers": [
        "Modules\\Option\\Providers\\OptionServiceProvider"
    ],
    "aliases": {},
    "files": [],
    "requires": []
}
